{
    "accessors" : [
        {
            "bufferView" : 0,
            "componentType" : 5123,
            "count" : 7182,
            "max" : [
                2701
            ],
            "min" : [
                0
            ],
            "type" : "SCALAR"
        },
        {
            "bufferView" : 1,
            "componentType" : 5126,
            "count" : 2702,
            "max" : [
                62.041778564453125,
                39.96196365356445,
                24.46790885925293
            ],
            "min" : [
                -62.13427734375,
                -80.35966491699219,
                -39.32197189331055
            ],
            "type" : "VEC3"
        },
        {
            "bufferView" : 2,
            "componentType" : 5126,
            "count" : 2702,
            "max" : [
                1.0,
                0.9999800324440002,
                1.0
            ],
            "min" : [
                -1.0,
                -0.9999961256980896,
                -1.0
            ],
            "type" : "VEC3"
        },
        {
            "bufferView" : 3,
            "componentType" : 5126,
            "count" : 2702,
            "max" : [
                0.9999989867210388,
                0.9999998211860657,
                0.9928135871887207,
                1.0
            ],
            "min" : [
                -0.9997342824935913,
                -0.9999186992645264,
                -0.9994921684265137,
                -1.0
            ],
            "type" : "VEC4"
        },
        {
            "bufferView" : 4,
            "componentType" : 5126,
            "count" : 2702,
            "max" : [
                0.9324277639389038,
                0.952376589179039
            ],
            "min" : [
                0.044307246804237366,
                0.09178942441940308
            ],
            "type" : "VEC2"
        },
        {
            "bufferView" : 5,
            "componentType" : 5123,
            "count" : 2702,
            "max" : [
                25,
                25,
                24,
                24
            ],
            "min" : [
                1,
                0,
                0,
                0
            ],
            "type" : "VEC4"
        },
        {
            "bufferView" : 6,
            "componentType" : 5126,
            "count" : 2702,
            "max" : [
                1.024161696434021,
                1.0013442039489746,
                0.7512532472610474,
                0.6115954518318176
            ],
            "min" : [
                3.730878233909607e-05,
                0.0,
                0.0,
                0.0
            ],
            "type" : "VEC4"
        },
        {
            "bufferView" : 7,
            "componentType" : 5123,
            "count" : 2702,
            "max" : [
                24,
                14,
                14,
                14
            ],
            "min" : [
                0,
                0,
                0,
                0
            ],
            "type" : "VEC4"
        },
        {
            "bufferView" : 8,
            "componentType" : 5126,
            "count" : 2702,
            "max" : [
                0.5374689698219299,
                0.3779410719871521,
                0.3608330190181732,
                0.3214065134525299
            ],
            "min" : [
                0.0,
                0.0,
                0.0,
                0.0
            ],
            "type" : "VEC4"
        },
        {
            "bufferView" : 9,
            "componentType" : 5123,
            "count" : 2702,
            "max" : [
                15,
                0,
                0,
                0
            ],
            "min" : [
                0,
                0,
                0,
                0
            ],
            "type" : "VEC4"
        },
        {
            "bufferView" : 10,
            "componentType" : 5126,
            "count" : 2702,
            "max" : [
                0.12343011051416397,
                0.0,
                0.0,
                0.0
            ],
            "min" : [
                0.0,
                0.0,
                0.0,
                0.0
            ],
            "type" : "VEC4"
        },
        {
            "bufferView" : 11,
            "componentType" : 5126,
            "count" : 26,
            "max" : [
                0.0543103888630867,
                0.05425091087818146,
                0.054121676832437515,
                0.0,
                0.021981842815876007,
                0.0543103963136673,
                0.0543103888630867,
                0.0,
                0.0543103888630867,
                0.03310072422027588,
                0.0543103963136673,
                0.0,
                2.2275917530059814,
                0.9909019470214844,
                2.8258557319641113,
                1.0
            ],
            "min" : [
                -0.029230136424303055,
                -0.05425091087818146,
                -0.054121676832437515,
                0.0,
                -0.021981842815876007,
                -0.0543103888630867,
                -6.4743006511491785e-09,
                0.0,
                -0.0543103888630867,
                -0.0543103963136673,
                -0.0543103963136673,
                0.0,
                -2.2275917530059814,
                -3.9350130558013916,
                -0.8820976614952087,
                1.0
            ],
            "type" : "MAT4"
        },
        {
            "bufferView" : 12,
            "componentType" : 5126,
            "count" : 1,
            "max" : [
                0.0
            ],
            "min" : [
                0.0
            ],
            "type" : "SCALAR"
        },
        {
            "bufferView" : 13,
            "componentType" : 5126,
            "count" : 1,
            "max" : [
                0.0,
                -1.1920928955078125e-07,
                0.0
            ],
            "min" : [
                0.0,
                -1.1920928955078125e-07,
                0.0
            ],
            "type" : "VEC3"
        },
        {
            "bufferView" : 14,
            "componentType" : 5126,
            "count" : 1,
            "max" : [
                0.0
            ],
            "min" : [
                0.0
            ],
            "type" : "SCALAR"
        },
        {
            "bufferView" : 15,
            "componentType" : 5126,
            "count" : 1,
            "max" : [
                0.7035383582115173,
                -0.02318810485303402,
                0.036369502544403076,
                0.709347128868103
            ],
            "min" : [
                0.7035383582115173,
                -0.02318810485303402,
                0.036369502544403076,
                0.709347128868103
            ],
            "type" : "VEC4"
        },
        {
            "bufferView" : 16,
            "componentType" : 5126,
            "count" : 1,
            "max" : [
                0.0
            ],
            "min" : [
                0.0
            ],
            "type" : "SCALAR"
        },
        {
            "bufferView" : 17,
            "componentType" : 5126,
            "count" : 1,
            "max" : [
                0.0,
                0.5610795021057129,
                0.0
            ],
            "min" : [
                0.0,
                0.5610795021057129,
                0.0
            ],
            "type" : "VEC3"
        },
        {
            "bufferView" : 18,
            "componentType" : 5126,
            "count" : 1,
            "max" : [
                0.0
            ],
            "min" : [
                0.0
            ],
            "type" : "SCALAR"
        },
        {
            "bufferView" : 19,
            "componentType" : 5126,
            "count" : 1,
            "max" : [
                -0.00047073906171135604,
                0.009336627088487148,
                0.027080168947577477,
                0.9995895624160767
            ],
            "min" : [
                -0.00047073906171135604,
                0.009336627088487148,
                0.027080168947577477,
                0.9995895624160767
            ],
            "type" : "VEC4"
        },
        {
            "bufferView" : 20,
            "componentType" : 5126,
            "count" : 1,
            "max" : [
                0.0
            ],
            "min" : [
                0.0
            ],
            "type" : "SCALAR"
        },
        {
            "bufferView" : 21,
            "componentType" : 5126,
            "count" : 1,
            "max" : [
                0.0,
                0.49890613555908203,
                0.0
            ],
            "min" : [
                0.0,
                0.49890613555908203,
                0.0
            ],
            "type" : "VEC3"
        },
        {
            "bufferView" : 22,
            "componentType" : 5126,
            "count" : 1,
            "max" : [
                0.0
            ],
            "min" : [
                0.0
            ],
            "type" : "SCALAR"
        },
        {
            "bufferView" : 23,
            "componentType" : 5126,
            "count" : 1,
            "max" : [
                -0.006791182328015566,
                0.007832886651158333,
                0.01179576013237238,
                0.9998767971992493
            ],
            "min" : [
                -0.006791182328015566,
                0.007832886651158333,
                0.01179576013237238,
                0.9998767971992493
            ],
            "type" : "VEC4"
        },
        {
            "bufferView" : 24,
            "componentType" : 5126,
            "count" : 1,
            "max" : [
                0.0
            ],
            "min" : [
                0.0
            ],
            "type" : "SCALAR"
        },
        {
            "bufferView" : 25,
            "componentType" : 5126,
            "count" : 1,
            "max" : [
                0.0,
                0.6037230491638184,
                0.0
            ],
            "min" : [
                0.0,
                0.6037230491638184,
                0.0
            ],
            "type" : "VEC3"
        },
        {
            "bufferView" : 26,
            "componentType" : 5126,
            "count" : 1,
            "max" : [
                0.0
            ],
            "min" : [
                0.0
            ],
            "type" : "SCALAR"
        },
        {
            "bufferView" : 27,
            "componentType" : 5126,
            "count" : 1,
            "max" : [
                -0.0010667811147868633,
                1.4210850480037267e-14,
                1.5159873089518572e-17,
                0.9999995231628418
            ],
            "min" : [
                -0.0010667811147868633,
                1.4210850480037267e-14,
                1.5159873089518572e-17,
                0.9999995231628418
            ],
            "type" : "VEC4"
        },
        {
            "bufferView" : 28,
            "componentType" : 5126,
            "count" : 1,
            "max" : [
                0.0
            ],
            "min" : [
                0.0
            ],
            "type" : "SCALAR"
        },
        {
            "bufferView" : 29,
            "componentType" : 5126,
            "count" : 1,
            "max" : [
                0.0,
                0.5158233642578125,
                0.0
            ],
            "min" : [
                0.0,
                0.5158233642578125,
                0.0
            ],
            "type" : "VEC3"
        },
        {
            "bufferView" : 30,
            "componentType" : 5126,
            "count" : 1,
            "max" : [
                0.0
            ],
            "min" : [
                0.0
            ],
            "type" : "SCALAR"
        },
        {
            "bufferView" : 31,
            "componentType" : 5126,
            "count" : 1,
            "max" : [
                0.0,
                -1.6940658945086007e-21,
                0.0,
                1.0
            ],
            "min" : [
                0.0,
                -1.6940658945086007e-21,
                0.0,
                1.0
            ],
            "type" : "VEC4"
        },
        {
            "bufferView" : 32,
            "componentType" : 5126,
            "count" : 1,
            "max" : [
                0.0
            ],
            "min" : [
                0.0
            ],
            "type" : "SCALAR"
        },
        {
            "bufferView" : 33,
            "componentType" : 5126,
            "count" : 1,
            "max" : [
                0.0,
                0.6037230491638184,
                0.0
            ],
            "min" : [
                0.0,
                0.6037230491638184,
                0.0
            ],
            "type" : "VEC3"
        },
        {
            "bufferView" : 34,
            "componentType" : 5126,
            "count" : 1,
            "max" : [
                0.0
            ],
            "min" : [
                0.0
            ],
            "type" : "SCALAR"
        },
        {
            "bufferView" : 35,
            "componentType" : 5126,
            "count" : 1,
            "max" : [
                -0.47928017377853394,
                -0.5142855644226074,
                -0.4727563261985779,
                0.5313213467597961
            ],
            "min" : [
                -0.47928017377853394,
                -0.5142855644226074,
                -0.4727563261985779,
                0.5313213467597961
            ],
            "type" : "VEC4"
        },
        {
            "bufferView" : 36,
            "componentType" : 5126,
            "count" : 1,
            "max" : [
                0.0
            ],
            "min" : [
                0.0
            ],
            "type" : "SCALAR"
        },
        {
            "bufferView" : 37,
            "componentType" : 5126,
            "count" : 1,
            "max" : [
                4.551914400963142e-15,
                0.6583812236785889,
                1.1175865566315224e-08
            ],
            "min" : [
                4.551914400963142e-15,
                0.6583812236785889,
                1.1175865566315224e-08
            ],
            "type" : "VEC3"
        },
        {
            "bufferView" : 38,
            "componentType" : 5126,
            "count" : 1,
            "max" : [
                0.0
            ],
            "min" : [
                0.0
            ],
            "type" : "SCALAR"
        },
        {
            "bufferView" : 39,
            "componentType" : 5126,
            "count" : 1,
            "max" : [
                -0.16928760707378387,
                0.001927358447574079,
                0.008580918423831463,
                0.9855275750160217
            ],
            "min" : [
                -0.16928760707378387,
                0.001927358447574079,
                0.008580918423831463,
                0.9855275750160217
            ],
            "type" : "VEC4"
        },
        {
            "bufferView" : 40,
            "componentType" : 5126,
            "count" : 1,
            "max" : [
                0.0
            ],
            "min" : [
                0.0
            ],
            "type" : "SCALAR"
        },
        {
            "bufferView" : 41,
            "componentType" : 5126,
            "count" : 1,
            "max" : [
                -4.656612873077393e-10,
                1.0756604671478271,
                -5.998538910034767e-08
            ],
            "min" : [
                -4.656612873077393e-10,
                1.0756604671478271,
                -5.998538910034767e-08
            ],
            "type" : "VEC3"
        },
        {
            "bufferView" : 42,
            "componentType" : 5126,
            "count" : 1,
            "max" : [
                0.0
            ],
            "min" : [
                0.0
            ],
            "type" : "SCALAR"
        },
        {
            "bufferView" : 43,
            "componentType" : 5126,
            "count" : 1,
            "max" : [
                0.07853870093822479,
                -0.00026315965806134045,
                0.009187394753098488,
                0.9968687295913696
            ],
            "min" : [
                0.07853870093822479,
                -0.00026315965806134045,
                0.009187394753098488,
                0.9968687295913696
            ],
            "type" : "VEC4"
        },
        {
            "bufferView" : 44,
            "componentType" : 5126,
            "count" : 1,
            "max" : [
                0.0
            ],
            "min" : [
                0.0
            ],
            "type" : "SCALAR"
        },
        {
            "bufferView" : 45,
            "componentType" : 5126,
            "count" : 1,
            "max" : [
                3.7971403799019754e-10,
                0.9450072050094604,
                5.960302829066677e-08
            ],
            "min" : [
                3.7971403799019754e-10,
                0.9450072050094604,
                5.960302829066677e-08
            ],
            "type" : "VEC3"
        },
        {
            "bufferView" : 46,
            "componentType" : 5126,
            "count" : 1,
            "max" : [
                0.0
            ],
            "min" : [
                0.0
            ],
            "type" : "SCALAR"
        },
        {
            "bufferView" : 47,
            "componentType" : 5126,
            "count" : 1,
            "max" : [
                0.012169599533081055,
                -0.0001293729292228818,
                -0.004873157944530249,
                0.9999141097068787
            ],
            "min" : [
                0.012169599533081055,
                -0.0001293729292228818,
                -0.004873157944530249,
                0.9999141097068787
            ],
            "type" : "VEC4"
        },
        {
            "bufferView" : 48,
            "componentType" : 5126,
            "count" : 1,
            "max" : [
                0.0
            ],
            "min" : [
                0.0
            ],
            "type" : "SCALAR"
        },
        {
            "bufferView" : 49,
            "componentType" : 5126,
            "count" : 1,
            "max" : [
                0.0,
                0.6037230491638184,
                0.0
            ],
            "min" : [
                0.0,
                0.6037230491638184,
                0.0
            ],
            "type" : "VEC3"
        },
        {
            "bufferView" : 50,
            "componentType" : 5126,
            "count" : 1,
            "max" : [
                0.0
            ],
            "min" : [
                0.0
            ],
            "type" : "SCALAR"
        },
        {
            "bufferView" : 51,
            "componentType" : 5126,
            "count" : 1,
            "max" : [
                -0.4764266312122345,
                0.5212369561195374,
                0.47488632798194885,
                0.5251787900924683
            ],
            "min" : [
                -0.4764266312122345,
                0.5212369561195374,
                0.47488632798194885,
                0.5251787900924683
            ],
            "type" : "VEC4"
        },
        {
            "bufferView" : 52,
            "componentType" : 5126,
            "count" : 1,
            "max" : [
                0.0
            ],
            "min" : [
                0.0
            ],
            "type" : "SCALAR"
        },
        {
            "bufferView" : 53,
            "componentType" : 5126,
            "count" : 1,
            "max" : [
                -1.5210055437364645e-14,
                0.6583812236785889,
                1.1175865566315224e-08
            ],
            "min" : [
                -1.5210055437364645e-14,
                0.6583812236785889,
                1.1175865566315224e-08
            ],
            "type" : "VEC3"
        },
        {
            "bufferView" : 54,
            "componentType" : 5126,
            "count" : 1,
            "max" : [
                0.0
            ],
            "min" : [
                0.0
            ],
            "type" : "SCALAR"
        },
        {
            "bufferView" : 55,
            "componentType" : 5126,
            "count" : 1,
            "max" : [
                -0.16561326384544373,
                -0.00019887348753400147,
                -0.000901554012671113,
                0.9861903786659241
            ],
            "min" : [
                -0.16561326384544373,
                -0.00019887348753400147,
                -0.000901554012671113,
                0.9861903786659241
            ],
            "type" : "VEC4"
        },
        {
            "bufferView" : 56,
            "componentType" : 5126,
            "count" : 1,
            "max" : [
                0.0
            ],
            "min" : [
                0.0
            ],
            "type" : "SCALAR"
        },
        {
            "bufferView" : 57,
            "componentType" : 5126,
            "count" : 1,
            "max" : [
                4.656612873077393e-10,
                1.0756604671478271,
                -5.998538910034767e-08
            ],
            "min" : [
                4.656612873077393e-10,
                1.0756604671478271,
                -5.998538910034767e-08
            ],
            "type" : "VEC3"
        },
        {
            "bufferView" : 58,
            "componentType" : 5126,
            "count" : 1,
            "max" : [
                0.0
            ],
            "min" : [
                0.0
            ],
            "type" : "SCALAR"
        },
        {
            "bufferView" : 59,
            "componentType" : 5126,
            "count" : 1,
            "max" : [
                0.07493115961551666,
                8.149687346303836e-05,
                -0.004355623386800289,
                0.9971792697906494
            ],
            "min" : [
                0.07493115961551666,
                8.149687346303836e-05,
                -0.004355623386800289,
                0.9971792697906494
            ],
            "type" : "VEC4"
        },
        {
            "bufferView" : 60,
            "componentType" : 5126,
            "count" : 1,
            "max" : [
                0.0
            ],
            "min" : [
                0.0
            ],
            "type" : "SCALAR"
        },
        {
            "bufferView" : 61,
            "componentType" : 5126,
            "count" : 1,
            "max" : [
                -3.7971403799019754e-10,
                0.9450072050094604,
                5.960302829066677e-08
            ],
            "min" : [
                -3.7971403799019754e-10,
                0.9450072050094604,
                5.960302829066677e-08
            ],
            "type" : "VEC3"
        },
        {
            "bufferView" : 62,
            "componentType" : 5126,
            "count" : 1,
            "max" : [
                0.0
            ],
            "min" : [
                0.0
            ],
            "type" : "SCALAR"
        },
        {
            "bufferView" : 63,
            "componentType" : 5126,
            "count" : 1,
            "max" : [
                0.004300105385482311,
                9.823763684835285e-05,
                0.00717216357588768,
                0.9999651312828064
            ],
            "min" : [
                0.004300105385482311,
                9.823763684835285e-05,
                0.00717216357588768,
                0.9999651312828064
            ],
            "type" : "VEC4"
        },
        {
            "bufferView" : 64,
            "componentType" : 5126,
            "count" : 1,
            "max" : [
                0.0
            ],
            "min" : [
                0.0
            ],
            "type" : "SCALAR"
        },
        {
            "bufferView" : 65,
            "componentType" : 5126,
            "count" : 1,
            "max" : [
                0.0,
                0.0,
                0.0
            ],
            "min" : [
                0.0,
                0.0,
                0.0
            ],
            "type" : "VEC3"
        },
        {
            "bufferView" : 66,
            "componentType" : 5126,
            "count" : 1,
            "max" : [
                0.0
            ],
            "min" : [
                0.0
            ],
            "type" : "SCALAR"
        },
        {
            "bufferView" : 67,
            "componentType" : 5126,
            "count" : 1,
            "max" : [
                -0.5265306830406189,
                -0.47198039293289185,
                -0.5265306830406189,
                0.47198039293289185
            ],
            "min" : [
                -0.5265306830406189,
                -0.47198039293289185,
                -0.5265306830406189,
                0.47198039293289185
            ],
            "type" : "VEC4"
        },
        {
            "bufferView" : 68,
            "componentType" : 5126,
            "count" : 1,
            "max" : [
                0.0
            ],
            "min" : [
                0.0
            ],
            "type" : "SCALAR"
        },
        {
            "bufferView" : 69,
            "componentType" : 5126,
            "count" : 1,
            "max" : [
                0.0,
                0.0,
                0.0
            ],
            "min" : [
                0.0,
                0.0,
                0.0
            ],
            "type" : "VEC3"
        },
        {
            "bufferView" : 70,
            "componentType" : 5126,
            "count" : 1,
            "max" : [
                0.0
            ],
            "min" : [
                0.0
            ],
            "type" : "SCALAR"
        },
        {
            "bufferView" : 71,
            "componentType" : 5126,
            "count" : 1,
            "max" : [
                -0.5265306830406189,
                0.47198039293289185,
                0.5265306830406189,
                0.47198039293289185
            ],
            "min" : [
                -0.5265306830406189,
                0.47198039293289185,
                0.5265306830406189,
                0.47198039293289185
            ],
            "type" : "VEC4"
        },
        {
            "bufferView" : 72,
            "componentType" : 5126,
            "count" : 1,
            "max" : [
                0.0
            ],
            "min" : [
                0.0
            ],
            "type" : "SCALAR"
        },
        {
            "bufferView" : 73,
            "componentType" : 5126,
            "count" : 1,
            "max" : [
                -1.1338691711425781,
                0.11689329892396927,
                -2.9441111087799072
            ],
            "min" : [
                -1.1338691711425781,
                0.11689329892396927,
                -2.9441111087799072
            ],
            "type" : "VEC3"
        },
        {
            "bufferView" : 74,
            "componentType" : 5126,
            "count" : 1,
            "max" : [
                0.0
            ],
            "min" : [
                0.0
            ],
            "type" : "SCALAR"
        },
        {
            "bufferView" : 75,
            "componentType" : 5126,
            "count" : 1,
            "max" : [
                -0.7071068286895752,
                0.0,
                0.0,
                0.7071068286895752
            ],
            "min" : [
                -0.7071068286895752,
                0.0,
                0.0,
                0.7071068286895752
            ],
            "type" : "VEC4"
        },
        {
            "bufferView" : 76,
            "componentType" : 5126,
            "count" : 1,
            "max" : [
                0.0
            ],
            "min" : [
                0.0
            ],
            "type" : "SCALAR"
        },
        {
            "bufferView" : 77,
            "componentType" : 5126,
            "count" : 1,
            "max" : [
                0.0,
                0.0,
                7.450580596923828e-09
            ],
            "min" : [
                0.0,
                0.0,
                7.450580596923828e-09
            ],
            "type" : "VEC3"
        },
        {
            "bufferView" : 78,
            "componentType" : 5126,
            "count" : 1,
            "max" : [
                0.0
            ],
            "min" : [
                0.0
            ],
            "type" : "SCALAR"
        },
        {
            "bufferView" : 79,
            "componentType" : 5126,
            "count" : 1,
            "max" : [
                0.12789973616600037,
                -0.6392893195152283,
                0.5754633545875549,
                0.4937538206577301
            ],
            "min" : [
                0.12789973616600037,
                -0.6392893195152283,
                0.5754633545875549,
                0.4937538206577301
            ],
            "type" : "VEC4"
        },
        {
            "bufferView" : 80,
            "componentType" : 5126,
            "count" : 1,
            "max" : [
                0.0
            ],
            "min" : [
                0.0
            ],
            "type" : "SCALAR"
        },
        {
            "bufferView" : 81,
            "componentType" : 5126,
            "count" : 1,
            "max" : [
                1.1338691711425781,
                0.11689329892396927,
                -2.9441111087799072
            ],
            "min" : [
                1.1338691711425781,
                0.11689329892396927,
                -2.9441111087799072
            ],
            "type" : "VEC3"
        },
        {
            "bufferView" : 82,
            "componentType" : 5126,
            "count" : 1,
            "max" : [
                0.0
            ],
            "min" : [
                0.0
            ],
            "type" : "SCALAR"
        },
        {
            "bufferView" : 83,
            "componentType" : 5126,
            "count" : 1,
            "max" : [
                -0.7071068286895752,
                0.0,
                0.0,
                0.7071068286895752
            ],
            "min" : [
                -0.7071068286895752,
                0.0,
                0.0,
                0.7071068286895752
            ],
            "type" : "VEC4"
        },
        {
            "bufferView" : 84,
            "componentType" : 5126,
            "count" : 1,
            "max" : [
                0.0
            ],
            "min" : [
                0.0
            ],
            "type" : "SCALAR"
        },
        {
            "bufferView" : 85,
            "componentType" : 5126,
            "count" : 1,
            "max" : [
                0.0,
                0.0,
                7.450580596923828e-09
            ],
            "min" : [
                0.0,
                0.0,
                7.450580596923828e-09
            ],
            "type" : "VEC3"
        },
        {
            "bufferView" : 86,
            "componentType" : 5126,
            "count" : 1,
            "max" : [
                0.0
            ],
            "min" : [
                0.0
            ],
            "type" : "SCALAR"
        },
        {
            "bufferView" : 87,
            "componentType" : 5126,
            "count" : 1,
            "max" : [
                0.12789973616600037,
                0.6392893195152283,
                -0.5754633545875549,
                0.4937538206577301
            ],
            "min" : [
                0.12789973616600037,
                0.6392893195152283,
                -0.5754633545875549,
                0.4937538206577301
            ],
            "type" : "VEC4"
        },
        {
            "bufferView" : 88,
            "componentType" : 5126,
            "count" : 1,
            "max" : [
                0.0
            ],
            "min" : [
                0.0
            ],
            "type" : "SCALAR"
        },
        {
            "bufferView" : 89,
            "componentType" : 5126,
            "count" : 1,
            "max" : [
                0.9905656576156616,
                0.0040787458419799805,
                -1.2291653156280518
            ],
            "min" : [
                0.9905656576156616,
                0.0040787458419799805,
                -1.2291653156280518
            ],
            "type" : "VEC3"
        },
        {
            "bufferView" : 90,
            "componentType" : 5126,
            "count" : 1,
            "max" : [
                0.0
            ],
            "min" : [
                0.0
            ],
            "type" : "SCALAR"
        },
        {
            "bufferView" : 91,
            "componentType" : 5126,
            "count" : 1,
            "max" : [
                0.0,
                0.0,
                -0.8769850730895996,
                0.480517715215683
            ],
            "min" : [
                0.0,
                0.0,
                -0.8769850730895996,
                0.480517715215683
            ],
            "type" : "VEC4"
        },
        {
            "bufferView" : 92,
            "componentType" : 5126,
            "count" : 1,
            "max" : [
                0.0
            ],
            "min" : [
                0.0
            ],
            "type" : "SCALAR"
        },
        {
            "bufferView" : 93,
            "componentType" : 5126,
            "count" : 1,
            "max" : [
                8.43769498715119e-15,
                0.6475554704666138,
                -5.798474154712456e-16
            ],
            "min" : [
                8.43769498715119e-15,
                0.6475554704666138,
                -5.798474154712456e-16
            ],
            "type" : "VEC3"
        },
        {
            "bufferView" : 94,
            "componentType" : 5126,
            "count" : 1,
            "max" : [
                0.0
            ],
            "min" : [
                0.0
            ],
            "type" : "SCALAR"
        },
        {
            "bufferView" : 95,
            "componentType" : 5126,
            "count" : 1,
            "max" : [
                -0.5525146722793579,
                0.0012562993215397,
                0.0011902907863259315,
                0.833501398563385
            ],
            "min" : [
                -0.5525146722793579,
                0.0012562993215397,
                0.0011902907863259315,
                0.833501398563385
            ],
            "type" : "VEC4"
        },
        {
            "bufferView" : 96,
            "componentType" : 5126,
            "count" : 1,
            "max" : [
                0.0
            ],
            "min" : [
                0.0
            ],
            "type" : "SCALAR"
        },
        {
            "bufferView" : 97,
            "componentType" : 5126,
            "count" : 1,
            "max" : [
                -1.3096723705530167e-10,
                1.2094359397888184,
                -4.823368726647459e-08
            ],
            "min" : [
                -1.3096723705530167e-10,
                1.2094359397888184,
                -4.823368726647459e-08
            ],
            "type" : "VEC3"
        },
        {
            "bufferView" : 98,
            "componentType" : 5126,
            "count" : 1,
            "max" : [
                0.0
            ],
            "min" : [
                0.0
            ],
            "type" : "SCALAR"
        },
        {
            "bufferView" : 99,
            "componentType" : 5126,
            "count" : 1,
            "max" : [
                -0.10351896286010742,
                0.0030463323928415775,
                0.030845580622553825,
                0.9941443800926208
            ],
            "min" : [
                -0.10351896286010742,
                0.0030463323928415775,
                0.030845580622553825,
                0.9941443800926208
            ],
            "type" : "VEC4"
        },
        {
            "bufferView" : 100,
            "componentType" : 5126,
            "count" : 1,
            "max" : [
                0.0
            ],
            "min" : [
                0.0
            ],
            "type" : "SCALAR"
        },
        {
            "bufferView" : 101,
            "componentType" : 5126,
            "count" : 1,
            "max" : [
                -0.9905656576156616,
                0.0040787458419799805,
                -1.2291653156280518
            ],
            "min" : [
                -0.9905656576156616,
                0.0040787458419799805,
                -1.2291653156280518
            ],
            "type" : "VEC3"
        },
        {
            "bufferView" : 102,
            "componentType" : 5126,
            "count" : 1,
            "max" : [
                0.0
            ],
            "min" : [
                0.0
            ],
            "type" : "SCALAR"
        },
        {
            "bufferView" : 103,
            "componentType" : 5126,
            "count" : 1,
            "max" : [
                0.0,
                0.0,
                0.8769850730895996,
                0.480517715215683
            ],
            "min" : [
                0.0,
                0.0,
                0.8769850730895996,
                0.480517715215683
            ],
            "type" : "VEC4"
        },
        {
            "bufferView" : 104,
            "componentType" : 5126,
            "count" : 1,
            "max" : [
                0.0
            ],
            "min" : [
                0.0
            ],
            "type" : "SCALAR"
        },
        {
            "bufferView" : 105,
            "componentType" : 5126,
            "count" : 1,
            "max" : [
                -8.43769498715119e-15,
                0.6475554704666138,
                -5.798474154712456e-16
            ],
            "min" : [
                -8.43769498715119e-15,
                0.6475554704666138,
                -5.798474154712456e-16
            ],
            "type" : "VEC3"
        },
        {
            "bufferView" : 106,
            "componentType" : 5126,
            "count" : 1,
            "max" : [
                0.0
            ],
            "min" : [
                0.0
            ],
            "type" : "SCALAR"
        },
        {
            "bufferView" : 107,
            "componentType" : 5126,
            "count" : 1,
            "max" : [
                -0.5525146722793579,
                -0.0012562993215397,
                -0.0011902907863259315,
                0.833501398563385
            ],
            "min" : [
                -0.5525146722793579,
                -0.0012562993215397,
                -0.0011902907863259315,
                0.833501398563385
            ],
            "type" : "VEC4"
        },
        {
            "bufferView" : 108,
            "componentType" : 5126,
            "count" : 1,
            "max" : [
                0.0
            ],
            "min" : [
                0.0
            ],
            "type" : "SCALAR"
        },
        {
            "bufferView" : 109,
            "componentType" : 5126,
            "count" : 1,
            "max" : [
                1.3096723705530167e-10,
                1.2094359397888184,
                -4.823368726647459e-08
            ],
            "min" : [
                1.3096723705530167e-10,
                1.2094359397888184,
                -4.823368726647459e-08
            ],
            "type" : "VEC3"
        },
        {
            "bufferView" : 110,
            "componentType" : 5126,
            "count" : 1,
            "max" : [
                0.0
            ],
            "min" : [
                0.0
            ],
            "type" : "SCALAR"
        },
        {
            "bufferView" : 111,
            "componentType" : 5126,
            "count" : 1,
            "max" : [
                -0.10351896286010742,
                -0.0030463323928415775,
                -0.030845580622553825,
                0.9941443800926208
            ],
            "min" : [
                -0.10351896286010742,
                -0.0030463323928415775,
                -0.030845580622553825,
                0.9941443800926208
            ],
            "type" : "VEC4"
        },
        {
            "bufferView" : 112,
            "componentType" : 5126,
            "count" : 21,
            "max" : [
                0.8333333333333334
            ],
            "min" : [
                0.0
            ],
            "type" : "SCALAR"
        },
        {
            "bufferView" : 113,
            "componentType" : 5126,
            "count" : 21,
            "max" : [
                1.2411150932312012,
                -3.251660274372625e-08,
                1.241114854812622
            ],
            "min" : [
                -1.241114854812622,
                -9.5367431640625e-07,
                -1.2411149740219116
            ],
            "type" : "VEC3"
        },
        {
            "bufferView" : 114,
            "componentType" : 5126,
            "count" : 21,
            "max" : [
                0.8333333333333334
            ],
            "min" : [
                0.0
            ],
            "type" : "SCALAR"
        },
        {
            "bufferView" : 115,
            "componentType" : 5126,
            "count" : 21,
            "max" : [
                -6.322027701344268e-08,
                0.7071068286895752,
                0.7071068286895752,
                0.7071068286895752
            ],
            "min" : [
                -0.7071068286895752,
                -0.6993258595466614,
                -0.6993260383605957,
                6.32202912242974e-08
            ],
            "type" : "VEC4"
        }
    ],
    "animations" : [
        {
            "channels" : [
                {
                    "sampler" : 0,
                    "target" : {
                        "node" : 3,
                        "path" : "translation"
                    }
                },
                {
                    "sampler" : 1,
                    "target" : {
                        "node" : 3,
                        "path" : "rotation"
                    }
                }
            ],
            "name" : "\u30a2\u30fc\u30de\u30c1\u30e5\u30a2Action",
            "samplers" : [
                {
                    "input" : 112,
                    "interpolation" : "LINEAR",
                    "output" : 113
                },
                {
                    "input" : 114,
                    "interpolation" : "LINEAR",
                    "output" : 115
                }
            ]
        },
        {
            "channels" : [
                {
                    "sampler" : 0,
                    "target" : {
                        "node" : 4,
                        "path" : "translation"
                    }
                },
                {
                    "sampler" : 1,
                    "target" : {
                        "node" : 4,
                        "path" : "rotation"
                    }
                },
                {
                    "sampler" : 2,
                    "target" : {
                        "node" : 5,
                        "path" : "translation"
                    }
                },
                {
                    "sampler" : 3,
                    "target" : {
                        "node" : 5,
                        "path" : "rotation"
                    }
                },
                {
                    "sampler" : 4,
                    "target" : {
                        "node" : 6,
                        "path" : "translation"
                    }
                },
                {
                    "sampler" : 5,
                    "target" : {
                        "node" : 6,
                        "path" : "rotation"
                    }
                },
                {
                    "sampler" : 6,
                    "target" : {
                        "node" : 7,
                        "path" : "translation"
                    }
                },
                {
                    "sampler" : 7,
                    "target" : {
                        "node" : 7,
                        "path" : "rotation"
                    }
                },
                {
                    "sampler" : 8,
                    "target" : {
                        "node" : 8,
                        "path" : "translation"
                    }
                },
                {
                    "sampler" : 9,
                    "target" : {
                        "node" : 8,
                        "path" : "rotation"
                    }
                },
                {
                    "sampler" : 10,
                    "target" : {
                        "node" : 9,
                        "path" : "translation"
                    }
                },
                {
                    "sampler" : 11,
                    "target" : {
                        "node" : 9,
                        "path" : "rotation"
                    }
                },
                {
                    "sampler" : 12,
                    "target" : {
                        "node" : 10,
                        "path" : "translation"
                    }
                },
                {
                    "sampler" : 13,
                    "target" : {
                        "node" : 10,
                        "path" : "rotation"
                    }
                },
                {
                    "sampler" : 14,
                    "target" : {
                        "node" : 11,
                        "path" : "translation"
                    }
                },
                {
                    "sampler" : 15,
                    "target" : {
                        "node" : 11,
                        "path" : "rotation"
                    }
                },
                {
                    "sampler" : 16,
                    "target" : {
                        "node" : 12,
                        "path" : "translation"
                    }
                },
                {
                    "sampler" : 17,
                    "target" : {
                        "node" : 12,
                        "path" : "rotation"
                    }
                },
                {
                    "sampler" : 18,
                    "target" : {
                        "node" : 13,
                        "path" : "translation"
                    }
                },
                {
                    "sampler" : 19,
                    "target" : {
                        "node" : 13,
                        "path" : "rotation"
                    }
                },
                {
                    "sampler" : 20,
                    "target" : {
                        "node" : 14,
                        "path" : "translation"
                    }
                },
                {
                    "sampler" : 21,
                    "target" : {
                        "node" : 14,
                        "path" : "rotation"
                    }
                },
                {
                    "sampler" : 22,
                    "target" : {
                        "node" : 15,
                        "path" : "translation"
                    }
                },
                {
                    "sampler" : 23,
                    "target" : {
                        "node" : 15,
                        "path" : "rotation"
                    }
                },
                {
                    "sampler" : 24,
                    "target" : {
                        "node" : 16,
                        "path" : "translation"
                    }
                },
                {
                    "sampler" : 25,
                    "target" : {
                        "node" : 16,
                        "path" : "rotation"
                    }
                },
                {
                    "sampler" : 26,
                    "target" : {
                        "node" : 17,
                        "path" : "translation"
                    }
                },
                {
                    "sampler" : 27,
                    "target" : {
                        "node" : 17,
                        "path" : "rotation"
                    }
                },
                {
                    "sampler" : 28,
                    "target" : {
                        "node" : 18,
                        "path" : "translation"
                    }
                },
                {
                    "sampler" : 29,
                    "target" : {
                        "node" : 18,
                        "path" : "rotation"
                    }
                },
                {
                    "sampler" : 30,
                    "target" : {
                        "node" : 19,
                        "path" : "translation"
                    }
                },
                {
                    "sampler" : 31,
                    "target" : {
                        "node" : 19,
                        "path" : "rotation"
                    }
                },
                {
                    "sampler" : 32,
                    "target" : {
                        "node" : 20,
                        "path" : "translation"
                    }
                },
                {
                    "sampler" : 33,
                    "target" : {
                        "node" : 20,
                        "path" : "rotation"
                    }
                },
                {
                    "sampler" : 34,
                    "target" : {
                        "node" : 21,
                        "path" : "translation"
                    }
                },
                {
                    "sampler" : 35,
                    "target" : {
                        "node" : 21,
                        "path" : "rotation"
                    }
                },
                {
                    "sampler" : 36,
                    "target" : {
                        "node" : 22,
                        "path" : "translation"
                    }
                },
                {
                    "sampler" : 37,
                    "target" : {
                        "node" : 22,
                        "path" : "rotation"
                    }
                },
                {
                    "sampler" : 38,
                    "target" : {
                        "node" : 23,
                        "path" : "translation"
                    }
                },
                {
                    "sampler" : 39,
                    "target" : {
                        "node" : 23,
                        "path" : "rotation"
                    }
                },
                {
                    "sampler" : 40,
                    "target" : {
                        "node" : 24,
                        "path" : "translation"
                    }
                },
                {
                    "sampler" : 41,
                    "target" : {
                        "node" : 24,
                        "path" : "rotation"
                    }
                },
                {
                    "sampler" : 42,
                    "target" : {
                        "node" : 25,
                        "path" : "translation"
                    }
                },
                {
                    "sampler" : 43,
                    "target" : {
                        "node" : 25,
                        "path" : "rotation"
                    }
                },
                {
                    "sampler" : 44,
                    "target" : {
                        "node" : 26,
                        "path" : "translation"
                    }
                },
                {
                    "sampler" : 45,
                    "target" : {
                        "node" : 26,
                        "path" : "rotation"
                    }
                },
                {
                    "sampler" : 46,
                    "target" : {
                        "node" : 27,
                        "path" : "translation"
                    }
                },
                {
                    "sampler" : 47,
                    "target" : {
                        "node" : 27,
                        "path" : "rotation"
                    }
                },
                {
                    "sampler" : 48,
                    "target" : {
                        "node" : 28,
                        "path" : "translation"
                    }
                },
                {
                    "sampler" : 49,
                    "target" : {
                        "node" : 28,
                        "path" : "rotation"
                    }
                }
            ],
            "name" : "kaitennaosu",
            "samplers" : [
                {
                    "input" : 12,
                    "interpolation" : "LINEAR",
                    "output" : 13
                },
                {
                    "input" : 14,
                    "interpolation" : "LINEAR",
                    "output" : 15
                },
                {
                    "input" : 16,
                    "interpolation" : "LINEAR",
                    "output" : 17
                },
                {
                    "input" : 18,
                    "interpolation" : "LINEAR",
                    "output" : 19
                },
                {
                    "input" : 20,
                    "interpolation" : "LINEAR",
                    "output" : 21
                },
                {
                    "input" : 22,
                    "interpolation" : "LINEAR",
                    "output" : 23
                },
                {
                    "input" : 24,
                    "interpolation" : "LINEAR",
                    "output" : 25
                },
                {
                    "input" : 26,
                    "interpolation" : "LINEAR",
                    "output" : 27
                },
                {
                    "input" : 28,
                    "interpolation" : "LINEAR",
                    "output" : 29
                },
                {
                    "input" : 30,
                    "interpolation" : "LINEAR",
                    "output" : 31
                },
                {
                    "input" : 32,
                    "interpolation" : "LINEAR",
                    "output" : 33
                },
                {
                    "input" : 34,
                    "interpolation" : "LINEAR",
                    "output" : 35
                },
                {
                    "input" : 36,
                    "interpolation" : "LINEAR",
                    "output" : 37
                },
                {
                    "input" : 38,
                    "interpolation" : "LINEAR",
                    "output" : 39
                },
                {
                    "input" : 40,
                    "interpolation" : "LINEAR",
                    "output" : 41
                },
                {
                    "input" : 42,
                    "interpolation" : "LINEAR",
                    "output" : 43
                },
                {
                    "input" : 44,
                    "interpolation" : "LINEAR",
                    "output" : 45
                },
                {
                    "input" : 46,
                    "interpolation" : "LINEAR",
                    "output" : 47
                },
                {
                    "input" : 48,
                    "interpolation" : "LINEAR",
                    "output" : 49
                },
                {
                    "input" : 50,
                    "interpolation" : "LINEAR",
                    "output" : 51
                },
                {
                    "input" : 52,
                    "interpolation" : "LINEAR",
                    "output" : 53
                },
                {
                    "input" : 54,
                    "interpolation" : "LINEAR",
                    "output" : 55
                },
                {
                    "input" : 56,
                    "interpolation" : "LINEAR",
                    "output" : 57
                },
                {
                    "input" : 58,
                    "interpolation" : "LINEAR",
                    "output" : 59
                },
                {
                    "input" : 60,
                    "interpolation" : "LINEAR",
                    "output" : 61
                },
                {
                    "input" : 62,
                    "interpolation" : "LINEAR",
                    "output" : 63
                },
                {
                    "input" : 64,
                    "interpolation" : "LINEAR",
                    "output" : 65
                },
                {
                    "input" : 66,
                    "interpolation" : "LINEAR",
                    "output" : 67
                },
                {
                    "input" : 68,
                    "interpolation" : "LINEAR",
                    "output" : 69
                },
                {
                    "input" : 70,
                    "interpolation" : "LINEAR",
                    "output" : 71
                },
                {
                    "input" : 72,
                    "interpolation" : "LINEAR",
                    "output" : 73
                },
                {
                    "input" : 74,
                    "interpolation" : "LINEAR",
                    "output" : 75
                },
                {
                    "input" : 76,
                    "interpolation" : "LINEAR",
                    "output" : 77
                },
                {
                    "input" : 78,
                    "interpolation" : "LINEAR",
                    "output" : 79
                },
                {
                    "input" : 80,
                    "interpolation" : "LINEAR",
                    "output" : 81
                },
                {
                    "input" : 82,
                    "interpolation" : "LINEAR",
                    "output" : 83
                },
                {
                    "input" : 84,
                    "interpolation" : "LINEAR",
                    "output" : 85
                },
                {
                    "input" : 86,
                    "interpolation" : "LINEAR",
                    "output" : 87
                },
                {
                    "input" : 88,
                    "interpolation" : "LINEAR",
                    "output" : 89
                },
                {
                    "input" : 90,
                    "interpolation" : "LINEAR",
                    "output" : 91
                },
                {
                    "input" : 92,
                    "interpolation" : "LINEAR",
                    "output" : 93
                },
                {
                    "input" : 94,
                    "interpolation" : "LINEAR",
                    "output" : 95
                },
                {
                    "input" : 96,
                    "interpolation" : "LINEAR",
                    "output" : 97
                },
                {
                    "input" : 98,
                    "interpolation" : "LINEAR",
                    "output" : 99
                },
                {
                    "input" : 100,
                    "interpolation" : "LINEAR",
                    "output" : 101
                },
                {
                    "input" : 102,
                    "interpolation" : "LINEAR",
                    "output" : 103
                },
                {
                    "input" : 104,
                    "interpolation" : "LINEAR",
                    "output" : 105
                },
                {
                    "input" : 106,
                    "interpolation" : "LINEAR",
                    "output" : 107
                },
                {
                    "input" : 108,
                    "interpolation" : "LINEAR",
                    "output" : 109
                },
                {
                    "input" : 110,
                    "interpolation" : "LINEAR",
                    "output" : 111
                }
            ]
        }
    ],
    "asset" : {
        "generator" : "Khronos Blender glTF 2.0 exporter",
        "version" : "2.0"
    },
    "bufferViews" : [
        {
            "buffer" : 0,
            "byteLength" : 14364,
            "byteOffset" : 0,
            "target" : 34963
        },
        {
            "buffer" : 0,
            "byteLength" : 32424,
            "byteOffset" : 14364,
            "target" : 34962
        },
        {
            "buffer" : 0,
            "byteLength" : 32424,
            "byteOffset" : 46788,
            "target" : 34962
        },
        {
            "buffer" : 0,
            "byteLength" : 43232,
            "byteOffset" : 79212,
            "target" : 34962
        },
        {
            "buffer" : 0,
            "byteLength" : 21616,
            "byteOffset" : 122444,
            "target" : 34962
        },
        {
            "buffer" : 0,
            "byteLength" : 21616,
            "byteOffset" : 144060,
            "target" : 34962
        },
        {
            "buffer" : 0,
            "byteLength" : 43232,
            "byteOffset" : 165676,
            "target" : 34962
        },
        {
            "buffer" : 0,
            "byteLength" : 21616,
            "byteOffset" : 208908,
            "target" : 34962
        },
        {
            "buffer" : 0,
            "byteLength" : 43232,
            "byteOffset" : 230524,
            "target" : 34962
        },
        {
            "buffer" : 0,
            "byteLength" : 21616,
            "byteOffset" : 273756,
            "target" : 34962
        },
        {
            "buffer" : 0,
            "byteLength" : 43232,
            "byteOffset" : 295372,
            "target" : 34962
        },
        {
            "buffer" : 0,
            "byteLength" : 1664,
            "byteOffset" : 338604
        },
        {
            "buffer" : 0,
            "byteLength" : 4,
            "byteOffset" : 340268
        },
        {
            "buffer" : 0,
            "byteLength" : 12,
            "byteOffset" : 340272
        },
        {
            "buffer" : 0,
            "byteLength" : 4,
            "byteOffset" : 340284
        },
        {
            "buffer" : 0,
            "byteLength" : 16,
            "byteOffset" : 340288
        },
        {
            "buffer" : 0,
            "byteLength" : 4,
            "byteOffset" : 340304
        },
        {
            "buffer" : 0,
            "byteLength" : 12,
            "byteOffset" : 340308
        },
        {
            "buffer" : 0,
            "byteLength" : 4,
            "byteOffset" : 340320
        },
        {
            "buffer" : 0,
            "byteLength" : 16,
            "byteOffset" : 340324
        },
        {
            "buffer" : 0,
            "byteLength" : 4,
            "byteOffset" : 340340
        },
        {
            "buffer" : 0,
            "byteLength" : 12,
            "byteOffset" : 340344
        },
        {
            "buffer" : 0,
            "byteLength" : 4,
            "byteOffset" : 340356
        },
        {
            "buffer" : 0,
            "byteLength" : 16,
            "byteOffset" : 340360
        },
        {
            "buffer" : 0,
            "byteLength" : 4,
            "byteOffset" : 340376
        },
        {
            "buffer" : 0,
            "byteLength" : 12,
            "byteOffset" : 340380
        },
        {
            "buffer" : 0,
            "byteLength" : 4,
            "byteOffset" : 340392
        },
        {
            "buffer" : 0,
            "byteLength" : 16,
            "byteOffset" : 340396
        },
        {
            "buffer" : 0,
            "byteLength" : 4,
            "byteOffset" : 340412
        },
        {
            "buffer" : 0,
            "byteLength" : 12,
            "byteOffset" : 340416
        },
        {
            "buffer" : 0,
            "byteLength" : 4,
            "byteOffset" : 340428
        },
        {
            "buffer" : 0,
            "byteLength" : 16,
            "byteOffset" : 340432
        },
        {
            "buffer" : 0,
            "byteLength" : 4,
            "byteOffset" : 340448
        },
        {
            "buffer" : 0,
            "byteLength" : 12,
            "byteOffset" : 340452
        },
        {
            "buffer" : 0,
            "byteLength" : 4,
            "byteOffset" : 340464
        },
        {
            "buffer" : 0,
            "byteLength" : 16,
            "byteOffset" : 340468
        },
        {
            "buffer" : 0,
            "byteLength" : 4,
            "byteOffset" : 340484
        },
        {
            "buffer" : 0,
            "byteLength" : 12,
            "byteOffset" : 340488
        },
        {
            "buffer" : 0,
            "byteLength" : 4,
            "byteOffset" : 340500
        },
        {
            "buffer" : 0,
            "byteLength" : 16,
            "byteOffset" : 340504
        },
        {
            "buffer" : 0,
            "byteLength" : 4,
            "byteOffset" : 340520
        },
        {
            "buffer" : 0,
            "byteLength" : 12,
            "byteOffset" : 340524
        },
        {
            "buffer" : 0,
            "byteLength" : 4,
            "byteOffset" : 340536
        },
        {
            "buffer" : 0,
            "byteLength" : 16,
            "byteOffset" : 340540
        },
        {
            "buffer" : 0,
            "byteLength" : 4,
            "byteOffset" : 340556
        },
        {
            "buffer" : 0,
            "byteLength" : 12,
            "byteOffset" : 340560
        },
        {
            "buffer" : 0,
            "byteLength" : 4,
            "byteOffset" : 340572
        },
        {
            "buffer" : 0,
            "byteLength" : 16,
            "byteOffset" : 340576
        },
        {
            "buffer" : 0,
            "byteLength" : 4,
            "byteOffset" : 340592
        },
        {
            "buffer" : 0,
            "byteLength" : 12,
            "byteOffset" : 340596
        },
        {
            "buffer" : 0,
            "byteLength" : 4,
            "byteOffset" : 340608
        },
        {
            "buffer" : 0,
            "byteLength" : 16,
            "byteOffset" : 340612
        },
        {
            "buffer" : 0,
            "byteLength" : 4,
            "byteOffset" : 340628
        },
        {
            "buffer" : 0,
            "byteLength" : 12,
            "byteOffset" : 340632
        },
        {
            "buffer" : 0,
            "byteLength" : 4,
            "byteOffset" : 340644
        },
        {
            "buffer" : 0,
            "byteLength" : 16,
            "byteOffset" : 340648
        },
        {
            "buffer" : 0,
            "byteLength" : 4,
            "byteOffset" : 340664
        },
        {
            "buffer" : 0,
            "byteLength" : 12,
            "byteOffset" : 340668
        },
        {
            "buffer" : 0,
            "byteLength" : 4,
            "byteOffset" : 340680
        },
        {
            "buffer" : 0,
            "byteLength" : 16,
            "byteOffset" : 340684
        },
        {
            "buffer" : 0,
            "byteLength" : 4,
            "byteOffset" : 340700
        },
        {
            "buffer" : 0,
            "byteLength" : 12,
            "byteOffset" : 340704
        },
        {
            "buffer" : 0,
            "byteLength" : 4,
            "byteOffset" : 340716
        },
        {
            "buffer" : 0,
            "byteLength" : 16,
            "byteOffset" : 340720
        },
        {
            "buffer" : 0,
            "byteLength" : 4,
            "byteOffset" : 340736
        },
        {
            "buffer" : 0,
            "byteLength" : 12,
            "byteOffset" : 340740
        },
        {
            "buffer" : 0,
            "byteLength" : 4,
            "byteOffset" : 340752
        },
        {
            "buffer" : 0,
            "byteLength" : 16,
            "byteOffset" : 340756
        },
        {
            "buffer" : 0,
            "byteLength" : 4,
            "byteOffset" : 340772
        },
        {
            "buffer" : 0,
            "byteLength" : 12,
            "byteOffset" : 340776
        },
        {
            "buffer" : 0,
            "byteLength" : 4,
            "byteOffset" : 340788
        },
        {
            "buffer" : 0,
            "byteLength" : 16,
            "byteOffset" : 340792
        },
        {
            "buffer" : 0,
            "byteLength" : 4,
            "byteOffset" : 340808
        },
        {
            "buffer" : 0,
            "byteLength" : 12,
            "byteOffset" : 340812
        },
        {
            "buffer" : 0,
            "byteLength" : 4,
            "byteOffset" : 340824
        },
        {
            "buffer" : 0,
            "byteLength" : 16,
            "byteOffset" : 340828
        },
        {
            "buffer" : 0,
            "byteLength" : 4,
            "byteOffset" : 340844
        },
        {
            "buffer" : 0,
            "byteLength" : 12,
            "byteOffset" : 340848
        },
        {
            "buffer" : 0,
            "byteLength" : 4,
            "byteOffset" : 340860
        },
        {
            "buffer" : 0,
            "byteLength" : 16,
            "byteOffset" : 340864
        },
        {
            "buffer" : 0,
            "byteLength" : 4,
            "byteOffset" : 340880
        },
        {
            "buffer" : 0,
            "byteLength" : 12,
            "byteOffset" : 340884
        },
        {
            "buffer" : 0,
            "byteLength" : 4,
            "byteOffset" : 340896
        },
        {
            "buffer" : 0,
            "byteLength" : 16,
            "byteOffset" : 340900
        },
        {
            "buffer" : 0,
            "byteLength" : 4,
            "byteOffset" : 340916
        },
        {
            "buffer" : 0,
            "byteLength" : 12,
            "byteOffset" : 340920
        },
        {
            "buffer" : 0,
            "byteLength" : 4,
            "byteOffset" : 340932
        },
        {
            "buffer" : 0,
            "byteLength" : 16,
            "byteOffset" : 340936
        },
        {
            "buffer" : 0,
            "byteLength" : 4,
            "byteOffset" : 340952
        },
        {
            "buffer" : 0,
            "byteLength" : 12,
            "byteOffset" : 340956
        },
        {
            "buffer" : 0,
            "byteLength" : 4,
            "byteOffset" : 340968
        },
        {
            "buffer" : 0,
            "byteLength" : 16,
            "byteOffset" : 340972
        },
        {
            "buffer" : 0,
            "byteLength" : 4,
            "byteOffset" : 340988
        },
        {
            "buffer" : 0,
            "byteLength" : 12,
            "byteOffset" : 340992
        },
        {
            "buffer" : 0,
            "byteLength" : 4,
            "byteOffset" : 341004
        },
        {
            "buffer" : 0,
            "byteLength" : 16,
            "byteOffset" : 341008
        },
        {
            "buffer" : 0,
            "byteLength" : 4,
            "byteOffset" : 341024
        },
        {
            "buffer" : 0,
            "byteLength" : 12,
            "byteOffset" : 341028
        },
        {
            "buffer" : 0,
            "byteLength" : 4,
            "byteOffset" : 341040
        },
        {
            "buffer" : 0,
            "byteLength" : 16,
            "byteOffset" : 341044
        },
        {
            "buffer" : 0,
            "byteLength" : 4,
            "byteOffset" : 341060
        },
        {
            "buffer" : 0,
            "byteLength" : 12,
            "byteOffset" : 341064
        },
        {
            "buffer" : 0,
            "byteLength" : 4,
            "byteOffset" : 341076
        },
        {
            "buffer" : 0,
            "byteLength" : 16,
            "byteOffset" : 341080
        },
        {
            "buffer" : 0,
            "byteLength" : 4,
            "byteOffset" : 341096
        },
        {
            "buffer" : 0,
            "byteLength" : 12,
            "byteOffset" : 341100
        },
        {
            "buffer" : 0,
            "byteLength" : 4,
            "byteOffset" : 341112
        },
        {
            "buffer" : 0,
            "byteLength" : 16,
            "byteOffset" : 341116
        },
        {
            "buffer" : 0,
            "byteLength" : 4,
            "byteOffset" : 341132
        },
        {
            "buffer" : 0,
            "byteLength" : 12,
            "byteOffset" : 341136
        },
        {
            "buffer" : 0,
            "byteLength" : 4,
            "byteOffset" : 341148
        },
        {
            "buffer" : 0,
            "byteLength" : 16,
            "byteOffset" : 341152
        },
        {
            "buffer" : 0,
            "byteLength" : 84,
            "byteOffset" : 341168
        },
        {
            "buffer" : 0,
            "byteLength" : 252,
            "byteOffset" : 341252
        },
        {
            "buffer" : 0,
            "byteLength" : 84,
            "byteOffset" : 341504
        },
        {
            "buffer" : 0,
            "byteLength" : 336,
            "byteOffset" : 341588
        }
    ],
    "buffers" : [
        {
            "byteLength" : 341924,
            "uri" : "0kureshi_kaiten.bin"
        }
    ],
    "images" : [
        {
            "name" : "kureshi1022",
            "uri" : "kureshi1022.png"
        }
    ],
    "materials" : [
        {
            "name" : "Steel_-_Satin",
            "pbrMetallicRoughness" : {
                "baseColorFactor" : [
                    0.6400000190734865,
                    0.6400000190734865,
                    0.6400000190734865,
                    1.0
                ],
                "baseColorTexture" : {
                    "index" : 0
                },
                "metallicFactor" : 0.0
            }
        }
    ],
    "meshes" : [
        {
            "name" : "MeshBody1",
            "primitives" : [
                {
                    "attributes" : {
                        "JOINTS_0" : 5,
                        "JOINTS_1" : 7,
                        "JOINTS_2" : 9,
                        "NORMAL" : 2,
                        "POSITION" : 1,
                        "TANGENT" : 3,
                        "TEXCOORD_0" : 4,
                        "WEIGHTS_0" : 6,
                        "WEIGHTS_1" : 8,
                        "WEIGHTS_2" : 10
                    },
                    "indices" : 0,
                    "material" : 0
                }
            ]
        }
    ],
    "nodes" : [
        {
            "name" : "Camera",
            "rotation" : [
                0.7338887453079224,
                -0.01088855043053627,
                0.011769910342991352,
                0.6790804862976074
            ],
            "scale" : [
                0.39814117550849915,
                0.3981412947177887,
                0.3981412649154663
            ],
            "translation" : [
                -0.4549993872642517,
                2.2503747940063477,
                21.888591766357422
            ]
        },
        {
            "mesh" : 0,
            "name" : "MeshBody1",
            "rotation" : [
                5.9604616353681195e-08,
                0.0,
                -0.0,
                1.0
            ],
            "scale" : [
                0.0543103888630867,
                0.0543103888630867,
                0.0543103888630867
            ],
            "skin" : 0,
            "translation" : [
                0.0,
                0.9909019470214844,
                -0.0
            ]
        },
        {
            "children" : [
                1,
                3
            ],
            "name" : "\u30a2\u30fc\u30de\u30c1\u30e5\u30a2",
            "translation" : [
                0.0,
                3.289214611053467,
                -0.0
            ]
        },
        {
            "children" : [
                4,
                19,
                21,
                23,
                26
            ],
            "name" : "\u30a2\u30fc\u30de\u30c1\u30e5\u30a2_Master",
            "rotation" : [
                -0.7071068286895752,
                0.0,
                0.0,
                0.7071068286895752
            ],
            "scale" : [
                1.0,
                0.9999999403953552,
                1.0
            ],
            "translation" : [
                1.241114854812622,
                -3.251660274372625e-08,
                -0.07829389721155167
            ]
        },
        {
            "children" : [
                5,
                17,
                18
            ],
            "name" : "\u30a2\u30fc\u30de\u30c1\u30e5\u30a2_Body1",
            "rotation" : [
                0.7035383582115173,
                -0.02318810485303402,
                0.036369502544403076,
                0.709347128868103
            ],
            "scale" : [
                0.9999999403953552,
                0.9999999403953552,
                1.0
            ],
            "translation" : [
                0.0,
                -1.1920928955078125e-07,
                0.0
            ]
        },
        {
            "children" : [
                6
            ],
            "name" : "\u30a2\u30fc\u30de\u30c1\u30e5\u30a2_Body2",
            "rotation" : [
                -0.00047073906171135604,
                0.009336627088487148,
                0.027080168947577477,
                0.9995895624160767
            ],
            "scale" : [
                0.9999999403953552,
                1.0,
                1.0
            ],
            "translation" : [
                0.0,
                0.5610795021057129,
                0.0
            ]
        },
        {
            "children" : [
                7,
                9,
                13
            ],
            "name" : "\u30a2\u30fc\u30de\u30c1\u30e5\u30a2_Body3",
            "rotation" : [
                -0.006791182328015566,
                0.007832886651158333,
                0.01179576013237238,
                0.9998767971992493
            ],
            "scale" : [
                0.9999999403953552,
                1.0,
                1.0
            ],
            "translation" : [
                0.0,
                0.49890613555908203,
                0.0
            ]
        },
        {
            "children" : [
                8
            ],
            "name" : "\u30a2\u30fc\u30de\u30c1\u30e5\u30a2_Neck",
            "rotation" : [
                -0.0010667811147868633,
                1.4210850480037267e-14,
                1.5159873089518572e-17,
                0.9999995231628418
            ],
            "translation" : [
                0.0,
                0.6037230491638184,
                0.0
            ]
        },
        {
            "name" : "\u30a2\u30fc\u30de\u30c1\u30e5\u30a2_Head",
            "rotation" : [
                0.0,
                -1.6940658945086007e-21,
                0.0,
                1.0
            ],
            "scale" : [
                1.0,
                0.9999999403953552,
                1.0
            ],
            "translation" : [
                0.0,
                0.5158233642578125,
                0.0
            ]
        },
        {
            "children" : [
                10
            ],
            "name" : "\u30a2\u30fc\u30de\u30c1\u30e5\u30a2_Shoulder_L",
            "rotation" : [
                -0.47928017377853394,
                -0.5142855644226074,
                -0.4727563261985779,
                0.5313213467597961
            ],
            "scale" : [
                1.0000001192092896,
                1.0000001192092896,
                1.0
            ],
            "translation" : [
                0.0,
                0.6037230491638184,
                0.0
            ]
        },
        {
            "children" : [
                11
            ],
            "name" : "\u30a2\u30fc\u30de\u30c1\u30e5\u30a2_UpperArm_L",
            "rotation" : [
                -0.16928760707378387,
                0.001927358447574079,
                0.008580918423831463,
                0.9855275750160217
            ],
            "scale" : [
                0.9999999403953552,
                0.9999999403953552,
                0.9999998807907104
            ],
            "translation" : [
                4.551914400963142e-15,
                0.6583812236785889,
                1.1175865566315224e-08
            ]
        },
        {
            "children" : [
                12
            ],
            "name" : "\u30a2\u30fc\u30de\u30c1\u30e5\u30a2_LowerArm_L",
            "rotation" : [
                0.07853870093822479,
                -0.00026315965806134045,
                0.009187394753098488,
                0.9968687295913696
            ],
            "scale" : [
                0.9999998807907104,
                1.0,
                0.9999998807907104
            ],
            "translation" : [
                -4.656612873077393e-10,
                1.0756604671478271,
                -5.998538910034767e-08
            ]
        },
        {
            "name" : "\u30a2\u30fc\u30de\u30c1\u30e5\u30a2_Hand_L",
            "rotation" : [
                0.012169599533081055,
                -0.0001293729292228818,
                -0.004873157944530249,
                0.9999141097068787
            ],
            "scale" : [
                1.0,
                1.0,
                1.0000001192092896
            ],
            "translation" : [
                3.7971403799019754e-10,
                0.9450072050094604,
                5.960302829066677e-08
            ]
        },
        {
            "children" : [
                14
            ],
            "name" : "\u30a2\u30fc\u30de\u30c1\u30e5\u30a2_Shoulder_R",
            "rotation" : [
                -0.4764266312122345,
                0.5212369561195374,
                0.47488632798194885,
                0.5251787900924683
            ],
            "scale" : [
                1.0,
                1.0000001192092896,
                1.0000001192092896
            ],
            "translation" : [
                0.0,
                0.6037230491638184,
                0.0
            ]
        },
        {
            "children" : [
                15
            ],
            "name" : "\u30a2\u30fc\u30de\u30c1\u30e5\u30a2_UpperArm_R",
            "rotation" : [
                -0.16561326384544373,
                -0.00019887348753400147,
                -0.000901554012671113,
                0.9861903786659241
            ],
            "scale" : [
                0.9999999403953552,
                1.0,
                0.9999998807907104
            ],
            "translation" : [
                -1.5210055437364645e-14,
                0.6583812236785889,
                1.1175865566315224e-08
            ]
        },
        {
            "children" : [
                16
            ],
            "name" : "\u30a2\u30fc\u30de\u30c1\u30e5\u30a2_LowerArm_R",
            "rotation" : [
                0.07493115961551666,
                8.149687346303836e-05,
                -0.004355623386800289,
                0.9971792697906494
            ],
            "scale" : [
                0.9999999403953552,
                1.0,
                0.9999999403953552
            ],
            "translation" : [
                4.656612873077393e-10,
                1.0756604671478271,
                -5.998538910034767e-08
            ]
        },
        {
            "name" : "\u30a2\u30fc\u30de\u30c1\u30e5\u30a2_Hand_R",
            "rotation" : [
                0.004300105385482311,
                9.823763684835285e-05,
                0.00717216357588768,
                0.9999651312828064
            ],
            "scale" : [
                1.0,
                1.0,
                1.0000001192092896
            ],
            "translation" : [
                -3.7971403799019754e-10,
                0.9450072050094604,
                5.960302829066677e-08
            ]
        },
        {
            "children" : [
                24
            ],
            "name" : "\u30a2\u30fc\u30de\u30c1\u30e5\u30a2_Hip_L",
            "rotation" : [
                -0.5265306830406189,
                -0.47198039293289185,
                -0.5265306830406189,
                0.47198039293289185
            ],
            "scale" : [
                1.0000001192092896,
                1.0000001192092896,
                1.0
            ]
        },
        {
            "children" : [
                27
            ],
            "name" : "\u30a2\u30fc\u30de\u30c1\u30e5\u30a2_Hip_R",
            "rotation" : [
                -0.5265306830406189,
                0.47198039293289185,
                0.5265306830406189,
                0.47198039293289185
            ],
            "scale" : [
                1.0000001192092896,
                1.0000001192092896,
                1.0
            ]
        },
        {
            "children" : [
                20
            ],
            "name" : "\u30a2\u30fc\u30de\u30c1\u30e5\u30a2_Handle_R",
            "rotation" : [
                -0.7071068286895752,
                0.0,
                0.0,
                0.7071068286895752
            ],
            "translation" : [
                -1.1338691711425781,
                0.11689329892396927,
                -2.9441111087799072
            ]
        },
        {
            "name" : "\u30a2\u30fc\u30de\u30c1\u30e5\u30a2_Foot_R",
            "rotation" : [
                0.12789973616600037,
                -0.6392893195152283,
                0.5754633545875549,
                0.4937538206577301
            ],
            "scale" : [
                1.0,
                1.0000001192092896,
                1.0
            ],
            "translation" : [
                0.0,
                0.0,
                7.450580596923828e-09
            ]
        },
        {
            "children" : [
                22
            ],
            "name" : "\u30a2\u30fc\u30de\u30c1\u30e5\u30a2_Handle_L",
            "rotation" : [
                -0.7071068286895752,
                0.0,
                0.0,
                0.7071068286895752
            ],
            "translation" : [
                1.1338691711425781,
                0.11689329892396927,
                -2.9441111087799072
            ]
        },
        {
            "name" : "\u30a2\u30fc\u30de\u30c1\u30e5\u30a2_Foot_L",
            "rotation" : [
                0.12789973616600037,
                0.6392893195152283,
                -0.5754633545875549,
                0.4937538206577301
            ],
            "scale" : [
                1.0,
                1.0000001192092896,
                1.0
            ],
            "translation" : [
                0.0,
                0.0,
                7.450580596923828e-09
            ]
        },
        {
            "name" : "\u30a2\u30fc\u30de\u30c1\u30e5\u30a2_KneeHandle_L",
            "rotation" : [
                0.0,
                0.0,
                -0.8769850730895996,
                0.480517715215683
            ],
            "scale" : [
                1.000000238418579,
                1.0,
                1.0
            ],
            "translation" : [
                0.9905656576156616,
                0.0040787458419799805,
                -1.2291653156280518
            ]
        },
        {
            "children" : [
                25
            ],
            "name" : "\u30a2\u30fc\u30de\u30c1\u30e5\u30a2_UpperLeg_L",
            "rotation" : [
                -0.5525146722793579,
                0.0012562993215397,
                0.0011902907863259315,
                0.833501398563385
            ],
            "scale" : [
                1.0,
                0.9999999403953552,
                1.0
            ],
            "translation" : [
                8.43769498715119e-15,
                0.6475554704666138,
                -5.798474154712456e-16
            ]
        },
        {
            "name" : "\u30a2\u30fc\u30de\u30c1\u30e5\u30a2_LowerLeg_L",
            "rotation" : [
                -0.10351896286010742,
                0.0030463323928415775,
                0.030845580622553825,
                0.9941443800926208
            ],
            "scale" : [
                1.0,
                0.9999998807907104,
                0.9999998211860657
            ],
            "translation" : [
                -1.3096723705530167e-10,
                1.2094359397888184,
                -4.823368726647459e-08
            ]
        },
        {
            "name" : "\u30a2\u30fc\u30de\u30c1\u30e5\u30a2_KneeHandle_R",
            "rotation" : [
                0.0,
                0.0,
                0.8769850730895996,
                0.480517715215683
            ],
            "scale" : [
                1.000000238418579,
                1.0,
                1.0
            ],
            "translation" : [
                -0.9905656576156616,
                0.0040787458419799805,
                -1.2291653156280518
            ]
        },
        {
            "children" : [
                28
            ],
            "name" : "\u30a2\u30fc\u30de\u30c1\u30e5\u30a2_UpperLeg_R",
            "rotation" : [
                -0.5525146722793579,
                -0.0012562993215397,
                -0.0011902907863259315,
                0.833501398563385
            ],
            "scale" : [
                1.0,
                0.9999999403953552,
                1.0
            ],
            "translation" : [
                -8.43769498715119e-15,
                0.6475554704666138,
                -5.798474154712456e-16
            ]
        },
        {
            "name" : "\u30a2\u30fc\u30de\u30c1\u30e5\u30a2_LowerLeg_R",
            "rotation" : [
                -0.10351896286010742,
                -0.0030463323928415775,
                -0.030845580622553825,
                0.9941443800926208
            ],
            "scale" : [
                1.0,
                0.9999998807907104,
                0.9999998211860657
            ],
            "translation" : [
                1.3096723705530167e-10,
                1.2094359397888184,
                -4.823368726647459e-08
            ]
        }
    ],
    "samplers" : [
        {}
    ],
    "scene" : 0,
    "scenes" : [
        {
            "name" : "Scene",
            "nodes" : [
                2,
                0
            ]
        }
    ],
    "skins" : [
        {
            "inverseBindMatrices" : 11,
            "joints" : [
                3,
                4,
                5,
                6,
                7,
                8,
                9,
                10,
                11,
                12,
                13,
                14,
                15,
                16,
                17,
                18,
                19,
                20,
                21,
                22,
                23,
                24,
                25,
                26,
                27,
                28
            ],
            "skeleton" : 2
        }
    ],
    "textures" : [
        {
            "sampler" : 0,
            "source" : 0
        }
    ]
}
